<svg id="question_copy" data-name="question copy" xmlns="http://www.w3.org/2000/svg" width="16.552" height="16.552" viewBox="0 0 16.552 16.552">
  <path id="question" d="M8.276,16.552a8.276,8.276,0,1,1,8.276-8.276A8.285,8.285,0,0,1,8.276,16.552Zm-.128-5.74a1.377,1.377,0,1,0,1.376,1.377A1.379,1.379,0,0,0,8.149,10.812ZM8.079,5.506a.92.92,0,0,1,.94.868c0,.335-.379.658-.818,1.031C7.637,7.885,7,8.429,7,9.153v1.118H9.362V9.5c0-.339.336-.618.724-.941a2.77,2.77,0,0,0,1.3-2.16A2.918,2.918,0,0,0,8.358,3.328,4.04,4.04,0,0,0,5.17,5.164L6.652,6.54C7.133,5.92,7.56,5.506,8.079,5.506Z" transform="translate(0 0)" fill="#2f2a6a"/>
</svg>
