<svg xmlns="http://www.w3.org/2000/svg" width="54" height="10" viewBox="0 0 54 10">
  <g id="Group_3_Copy_27" data-name="Group 3 Copy 27" transform="translate(-0.5)">
    <g id="Group_5_Copy_3" data-name="Group 5 Copy 3" transform="translate(0.5)">
      <g id="Group_3_Copy_2" data-name="Group 3 Copy 2">
        <path id="Triangle_Copy_2" data-name="Triangle Copy 2" d="M6.5,0,13,10H0Z" fill="#037fd0"/>
      </g>
    </g>
    <g id="Group_5_Copy_4" data-name="Group 5 Copy 4" transform="translate(20.5)">
      <g id="Group_3_Copy_2-2" data-name="Group 3 Copy 2">
        <path id="Triangle_Copy_2-2" data-name="Triangle Copy 2" d="M6.5,0,13,10H0Z"/>
      </g>
    </g>
    <g id="Group_5_Copy_5" data-name="Group 5 Copy 5" transform="translate(41.5)">
      <g id="Group_3_Copy_2-3" data-name="Group 3 Copy 2">
        <path id="Triangle_Copy_2-3" data-name="Triangle Copy 2" d="M6.5,0,13,10H0Z" fill="#ee252e"/>
      </g>
    </g>
  </g>
</svg>
